{
	"name": "Matcha",
	"source_type": "archive",
	"archive_selector": "",
	"repo": {
		"owner": "vinceliuice",
		"name": "Matcha-gtk-theme"
	},
	"variants": [
		["", "light", "dark"],
		["aliz", "azul", "sea"]
	],
	"skip_variants": [
		["dark", "azul"],
		["", "sea"]
	]
}